[
  {
    "code": 93,
    "eng": "Afghanistan",
    "ru": "Афганистан"
  },
  {
    "code": 355,
    "eng": "Albania",
    "ru": "Албания"
  },
  {
    "code": 21,
    "eng": "Algeria",
    "ru": "Алжир"
  },
  {
    "code": 684,
    "eng": "American Samoa",
    "ru": "Американское Самоа"
  },
  {
    "code": 376,
    "eng": "Andorra",
    "ru": "Андорра"
  },
  {
    "code": 244,
    "eng": "Angola",
    "ru": "Ангола"
  },
  {
    "code": 54,
    "eng": "Argentina",
    "ru": "Аргентина"
  },
  {
    "code": 374,
    "eng": "Armenia",
    "ru": "Армения"
  },
  {
    "code": 297,
    "eng": "Aruba",
    "ru": "Аруба"
  },
  {
    "code": 247,
    "eng": "Ascension",
    "ru": "Асеньон"
  },
  {
    "code": 61,
    "eng": "Australia",
    "ru": "Австралия"
  },
  {
    "code": 672,
    "eng": "Australian External Territories",
    "ru": "Австралийские внеш. террит-и"
  },
  {
    "code": 43,
    "eng": "Austria",
    "ru": "Австрия"
  },
  {
    "code": 994,
    "eng": "Azerbaijan",
    "ru": "Азербайджан"
  },
  {
    "code": 351,
    "eng": "Azores",
    "ru": "Азорские о-ва"
  },
  {
    "code": 973,
    "eng": "Bahrain",
    "ru": "Бахрейн"
  },
  {
    "code": 880,
    "eng": "Bangladesh",
    "ru": "Бангладеш"
  },
  {
    "code": 375,
    "eng": "Belarus",
    "ru": "Беларусь"
  },
  {
    "code": 32,
    "eng": "Belgium",
    "ru": "Бельгия"
  },
  {
    "code": 501,
    "eng": "Belize",
    "ru": "Белиз"
  },
  {
    "code": 229,
    "eng": "Benin",
    "ru": "Бенин"
  },
  {
    "code": 975,
    "eng": "Bhutan",
    "ru": "Бутан"
  },
  {
    "code": 591,
    "eng": "Bolivia",
    "ru": "Боливия"
  },
  {
    "code": 387,
    "eng": "Bosnia and Herzegovina",
    "ru": "Босния и Герцеговина"
  },
  {
    "code": 267,
    "eng": "Botswana",
    "ru": "Ботсвана"
  },
  {
    "code": 55,
    "eng": "Brazil",
    "ru": "Бразилия"
  },
  {
    "code": 673,
    "eng": "Brunei",
    "ru": "Бруней"
  },
  {
    "code": 359,
    "eng": "Bulgaria",
    "ru": "Болгария"
  },
  {
    "code": 226,
    "eng": "Burkina Faso",
    "ru": "Буркина Фасо"
  },
  {
    "code": 257,
    "eng": "Burundi",
    "ru": "Бурунди"
  },
  {
    "code": 855,
    "eng": "Cambodia",
    "ru": "Камбоджа"
  },
  {
    "code": 237,
    "eng": "Cameroon",
    "ru": "Камерун"
  },
  {
    "code": 238,
    "eng": "Cape Verde",
    "ru": "Капе Верде"
  },
  {
    "code": 236,
    "eng": "Central African Republic",
    "ru": "ЦАР"
  },
  {
    "code": 235,
    "eng": "Chad",
    "ru": "Чад"
  },
  {
    "code": 56,
    "eng": "Chile",
    "ru": "Чили"
  },
  {
    "code": 86,
    "eng": "China",
    "ru": "Китай"
  },
  {
    "code": 672,
    "eng": "Christmas Island",
    "ru": "Рождественсткие о-ва"
  },
  {
    "code": 672,
    "eng": "Cocos Islands",
    "ru": "Кокосовые о-ва"
  },
  {
    "code": 57,
    "eng": "Colombia",
    "ru": "Колумбия"
  },
  {
    "code": 269,
    "eng": "Comoros and Mayotte Island",
    "ru": "Коморские о-ва"
  },
  {
    "code": 242,
    "eng": "Congo",
    "ru": "Конго"
  },
  {
    "code": 243,
    "eng": "Democratic Republic (ex. Zaire)",
    "ru": "Дем. респ. Конго (бывш. Заир)"
  },
  {
    "code": 682,
    "eng": "Cook Islands",
    "ru": "О-ва Кука"
  },
  {
    "code": 506,
    "eng": "Costa Rica",
    "ru": "Коста Рика"
  },
  {
    "code": 385,
    "eng": "Croatia",
    "ru": "Хорватия"
  },
  {
    "code": 53,
    "eng": "Cuba",
    "ru": "Куба"
  },
  {
    "code": 357,
    "eng": "Cyprus",
    "ru": "Кипр"
  },
  {
    "code": 420,
    "eng": "Czech Republic",
    "ru": "Чехия"
  },
  {
    "code": 45,
    "eng": "Denmark",
    "ru": "Дания"
  },
  {
    "code": 246,
    "eng": "Diego Garcia",
    "ru": "Диего Гарсиа"
  },
  {
    "code": 253,
    "eng": "Djibouti",
    "ru": "Джибути"
  },
  {
    "code": 62,
    "eng": "East Timor",
    "ru": "Восточный Тимор"
  },
  {
    "code": 593,
    "eng": "Ecuador",
    "ru": "Эквадор"
  },
  {
    "code": 20,
    "eng": "Egypt",
    "ru": "Египет"
  },
  {
    "code": 503,
    "eng": "El Salvador",
    "ru": "Сальвадор"
  },
  {
    "code": 240,
    "eng": "Equatorial Guinea",
    "ru": "Экваториальная Гвинея"
  },
  {
    "code": 291,
    "eng": "Eritrea",
    "ru": "Эритрия"
  },
  {
    "code": 372,
    "eng": "Estonia",
    "ru": "Эстония"
  },
  {
    "code": 251,
    "eng": "Ethiopia",
    "ru": "Эфиопия"
  },
  {
    "code": 298,
    "eng": "Faeroe Islands",
    "ru": "Фарерские о-ва"
  },
  {
    "code": 500,
    "eng": "Falkland Islands",
    "ru": "Фолклендские о-ва"
  },
  {
    "code": 679,
    "eng": "Fiji",
    "ru": "Фиджи"
  },
  {
    "code": 358,
    "eng": "Finland",
    "ru": "Финляндия"
  },
  {
    "code": 33,
    "eng": "France",
    "ru": "Франция"
  },
  {
    "code": 590,
    "eng": "French Antilles",
    "ru": "Французские Антиллы"
  },
  {
    "code": 594,
    "eng": "French Guiana",
    "ru": "Французская Гвиана"
  },
  {
    "code": 689,
    "eng": "French Polynesia",
    "ru": "Французская полинезия"
  },
  {
    "code": 241,
    "eng": "Gabonese Republic",
    "ru": "Габон"
  },
  {
    "code": 220,
    "eng": "Gambia",
    "ru": "Гамбия"
  },
  {
    "code": 995,
    "eng": "Georgia",
    "ru": "Грузия"
  },
  {
    "code": 49,
    "eng": "Germany",
    "ru": "Германия"
  },
  {
    "code": 233,
    "eng": "Ghana",
    "ru": "Гана"
  },
  {
    "code": 350,
    "eng": "Gibraltar",
    "ru": "Гибралтар"
  },
  {
    "code": 30,
    "eng": "Greece",
    "ru": "Греция"
  },
  {
    "code": 299,
    "eng": "Greenland",
    "ru": "Гренландия"
  },
  {
    "code": 671,
    "eng": "Guam",
    "ru": "Гуам"
  },
  {
    "code": 502,
    "eng": "Guatemala",
    "ru": "Гватемала"
  },
  {
    "code": 224,
    "eng": "Guinea",
    "ru": "Гвинея"
  },
  {
    "code": 245,
    "eng": "Guinea-Bissau",
    "ru": "Гвинея Биссау"
  },
  {
    "code": 592,
    "eng": "Guyana",
    "ru": "Гайана"
  },
  {
    "code": 509,
    "eng": "Haiti",
    "ru": "Гаити"
  },
  {
    "code": 504,
    "eng": "Honduras",
    "ru": "Гондурас"
  },
  {
    "code": 852,
    "eng": "Hong Kong",
    "ru": "Гонконг"
  },
  {
    "code": 36,
    "eng": "Hungary",
    "ru": "Венгрия"
  },
  {
    "code": 354,
    "eng": "Iceland",
    "ru": "Исландия"
  },
  {
    "code": 91,
    "eng": "India",
    "ru": "Индия"
  },
  {
    "code": 62,
    "eng": "Indonesia",
    "ru": "Индонезия"
  },
  {
    "code": 98,
    "eng": "Iran",
    "ru": "Иран"
  },
  {
    "code": 964,
    "eng": "Iraq",
    "ru": "Ирак"
  },
  {
    "code": 353,
    "eng": "Irish Republic",
    "ru": "Ирландия"
  },
  {
    "code": 972,
    "eng": "Israel",
    "ru": "Израиль"
  },
  {
    "code": 39,
    "eng": "Italy",
    "ru": "Италия"
  },
  {
    "code": 225,
    "eng": "Ivory Coast",
    "ru": "Берег слоновой кости"
  },
  {
    "code": 81,
    "eng": "Japan",
    "ru": "Япония"
  },
  {
    "code": 962,
    "eng": "Jordan",
    "ru": "Иордания"
  },
  {
    "code": 7,
    "eng": "Kazakhstan",
    "ru": "Казахстан"
  },
  {
    "code": 254,
    "eng": "Kenya",
    "ru": "Кения"
  },
  {
    "code": 686,
    "eng": "Kiribati Republic",
    "ru": "Кирибати"
  },
  {
    "code": 850,
    "eng": "Korea, Dem. People's Republic",
    "ru": "Северная Корея"
  },
  {
    "code": 82,
    "eng": "Korea, Republic",
    "ru": "Южная Корея"
  },
  {
    "code": 965,
    "eng": "Kuwait",
    "ru": "Кувейт"
  },
  {
    "code": 996,
    "eng": "Kyrgyzstan",
    "ru": "Киргизстан"
  },
  {
    "code": 856,
    "eng": "Laos",
    "ru": "Лаос"
  },
  {
    "code": 371,
    "eng": "Latvia",
    "ru": "Латвия"
  },
  {
    "code": 961,
    "eng": "Lebanon",
    "ru": "Ливан"
  },
  {
    "code": 266,
    "eng": "Lesotho",
    "ru": "Лессото"
  },
  {
    "code": 231,
    "eng": "Liberia",
    "ru": "Либерия"
  },
  {
    "code": 21,
    "eng": "Libya",
    "ru": "Ливия"
  },
  {
    "code": 41,
    "eng": "Liechtenstein",
    "ru": "Лихтенштейн"
  },
  {
    "code": 370,
    "eng": "Lithuania",
    "ru": "Литва"
  },
  {
    "code": 352,
    "eng": "Luxembourg",
    "ru": "Люксембург"
  },
  {
    "code": 853,
    "eng": "Macau",
    "ru": "Макао"
  },
  {
    "code": 389,
    "eng": "Macedonia",
    "ru": "Македония"
  },
  {
    "code": 261,
    "eng": "Madagascar",
    "ru": "Мадагаскар"
  },
  {
    "code": 265,
    "eng": "Malawi",
    "ru": "Малави"
  },
  {
    "code": 60,
    "eng": "Malaysia",
    "ru": "Малайзия"
  },
  {
    "code": 960,
    "eng": "Maldives",
    "ru": "Мальдивские о-ва"
  },
  {
    "code": 223,
    "eng": "Mali",
    "ru": "Мали"
  },
  {
    "code": 356,
    "eng": "Malta",
    "ru": "Мальта"
  },
  {
    "code": 692,
    "eng": "Marshall Islands",
    "ru": "Маршалловы о-ва"
  },
  {
    "code": 596,
    "eng": "Martinique",
    "ru": "Мартиника"
  },
  {
    "code": 222,
    "eng": "Mauritania",
    "ru": "Мавритания"
  },
  {
    "code": 230,
    "eng": "Mauritius",
    "ru": "Маврикий"
  },
  {
    "code": 52,
    "eng": "Mexico",
    "ru": "Мексика"
  },
  {
    "code": 691,
    "eng": "Micronesia",
    "ru": "Микронезия"
  },
  {
    "code": 377,
    "eng": "Monaco",
    "ru": "Монако"
  },
  {
    "code": 976,
    "eng": "Mongolia",
    "ru": "Монголия"
  },
  {
    "code": 373,
    "eng": "Moldova",
    "ru": "Молдавия"
  },
  {
    "code": 212,
    "eng": "Morocco",
    "ru": "Марокко"
  },
  {
    "code": 258,
    "eng": "Mozambique",
    "ru": "Мозамбик"
  },
  {
    "code": 95,
    "eng": "Myanmar",
    "ru": "Мьянма"
  },
  {
    "code": 264,
    "eng": "Namibia",
    "ru": "Намибия"
  },
  {
    "code": 674,
    "eng": "Nauru",
    "ru": "Науру"
  },
  {
    "code": 977,
    "eng": "Nepal",
    "ru": "Непал"
  },
  {
    "code": 31,
    "eng": "Netherlands",
    "ru": "Нидерланды"
  },
  {
    "code": 599,
    "eng": "Netherlands Antilles",
    "ru": "Нидерландские Антиллы"
  },
  {
    "code": 687,
    "eng": "New Caledonia",
    "ru": "Новая Каледония"
  },
  {
    "code": 64,
    "eng": "New Zealand",
    "ru": "Новая Зеландия"
  },
  {
    "code": 505,
    "eng": "Nicaragua",
    "ru": "Никарагуа"
  },
  {
    "code": 227,
    "eng": "Niger",
    "ru": "Нигер"
  },
  {
    "code": 234,
    "eng": "Nigeria",
    "ru": "Нигерия"
  },
  {
    "code": 683,
    "eng": "Niue Islands",
    "ru": ""
  },
  {
    "code": 672,
    "eng": "Norfolk Island",
    "ru": "Норфолкские о-ва"
  },
  {
    "code": 670,
    "eng": "Northern Mariana Islands",
    "ru": "Северо-Марианские о-ва"
  },
  {
    "code": 47,
    "eng": "Norway",
    "ru": "Норвегия"
  },
  {
    "code": 968,
    "eng": "Oman",
    "ru": "Оман"
  },
  {
    "code": 92,
    "eng": "Pakistan",
    "ru": "Пакистан"
  },
  {
    "code": 680,
    "eng": "Palau",
    "ru": "Палау"
  },
  {
    "code": 507,
    "eng": "Panama",
    "ru": "Панама"
  },
  {
    "code": 675,
    "eng": "Papua New Guinea",
    "ru": "Папуа Новая Гвинея"
  },
  {
    "code": 595,
    "eng": "Paraguay",
    "ru": "Парагвай"
  },
  {
    "code": 51,
    "eng": "Peru",
    "ru": "Перу"
  },
  {
    "code": 63,
    "eng": "Philippines",
    "ru": "Филипины"
  },
  {
    "code": 48,
    "eng": "Poland",
    "ru": "Польша"
  },
  {
    "code": 351,
    "eng": "Portugal",
    "ru": "Португалия"
  },
  {
    "code": 974,
    "eng": "Qatar",
    "ru": "Катар"
  },
  {
    "code": 378,
    "eng": "Republic of San Marino",
    "ru": "Сан Марино"
  },
  {
    "code": 262,
    "eng": "Reunion Islands",
    "ru": "Реюнион"
  },
  {
    "code": 40,
    "eng": "Romania",
    "ru": "Румыния"
  },
  {
    "code": 7,
    "eng": "Russia",
    "ru": "Россия"
  },
  {
    "code": 250,
    "eng": "Rwandese Republic",
    "ru": "Руанда"
  },
  {
    "code": 247,
    "eng": "Saint Helena and Ascension Island",
    "ru": "О-ва Святой Елены"
  },
  {
    "code": 508,
    "eng": "Saint Pierre et Miquelon",
    "ru": "Сент Пьер"
  },
  {
    "code": 39,
    "eng": "San Marino",
    "ru": "Сан Марино"
  },
  {
    "code": 239,
    "eng": "Sao Tome e Principe",
    "ru": "Сент Том и Принцип"
  },
  {
    "code": 966,
    "eng": "Saudi Arabia",
    "ru": "Саудовская Аравия"
  },
  {
    "code": 221,
    "eng": "Senegal",
    "ru": "Сенегал"
  },
  {
    "code": 248,
    "eng": "Seychelles",
    "ru": "Сейшельские о-ва"
  },
  {
    "code": 232,
    "eng": "Sierra Leone",
    "ru": "Сьерра Леоне"
  },
  {
    "code": 65,
    "eng": "Singapore",
    "ru": "Сингапур"
  },
  {
    "code": 421,
    "eng": "Slovak Republic",
    "ru": "Словакия"
  },
  {
    "code": 386,
    "eng": "Slovenia",
    "ru": "Словения"
  },
  {
    "code": 677,
    "eng": "Solomon Islands",
    "ru": "Соломоновы о-ва"
  },
  {
    "code": 252,
    "eng": "Somalia",
    "ru": "Сомали"
  },
  {
    "code": 27,
    "eng": "South Africa",
    "ru": "ЮАР"
  },
  {
    "code": 34,
    "eng": "Spain",
    "ru": "Испания"
  },
  {
    "code": 94,
    "eng": "Sri Lanka",
    "ru": "Шри Ланка"
  },
  {
    "code": 249,
    "eng": "Sudan",
    "ru": "Судан"
  },
  {
    "code": 597,
    "eng": "Suriname",
    "ru": "Суринам"
  },
  {
    "code": 47,
    "eng": "Svalbard and Jan Mayen Islands",
    "ru": "Свалбард"
  },
  {
    "code": 268,
    "eng": "Swaziland",
    "ru": "Свазиленд"
  },
  {
    "code": 46,
    "eng": "Sweden",
    "ru": "Швеция"
  },
  {
    "code": 41,
    "eng": "Switzerland",
    "ru": "Швейцария"
  },
  {
    "code": 963,
    "eng": "Syria",
    "ru": "Сирия"
  },
  {
    "code": 886,
    "eng": "Taiwan",
    "ru": "Тайвань"
  },
  {
    "code": 992,
    "eng": "Tajikistan",
    "ru": "Таджикистан"
  },
  {
    "code": 255,
    "eng": "Tanzania",
    "ru": "Танзания"
  },
  {
    "code": 66,
    "eng": "Thailand",
    "ru": "Тайланд"
  },
  {
    "code": 228,
    "eng": "Togolese Republic",
    "ru": "Тоголезе"
  },
  {
    "code": 690,
    "eng": "Tokelau",
    "ru": "Токелау"
  },
  {
    "code": 676,
    "eng": "Tonga",
    "ru": "Тонго"
  },
  {
    "code": 21,
    "eng": "Tunisia",
    "ru": "Тунис"
  },
  {
    "code": 90,
    "eng": "Turkey",
    "ru": "Турция"
  },
  {
    "code": 993,
    "eng": "Turkmenistan",
    "ru": "Туркменистан"
  },
  {
    "code": 688,
    "eng": "Tuvalu",
    "ru": "Тувалу"
  },
  {
    "code": 256,
    "eng": "Uganda",
    "ru": "Уганда"
  },
  {
    "code": 380,
    "eng": "Ukraine",
    "ru": "Украина"
  },
  {
    "code": 971,
    "eng": "United Arab Emirates",
    "ru": "ОАЭ"
  },
  {
    "code": 44,
    "eng": "United Kingdom",
    "ru": "Великобритания"
  },
  {
    "code": 598,
    "eng": "Uruguay",
    "ru": "Уругвай"
  },
  {
    "code": 1,
    "eng": "USА",
    "ru": "США"
  },
  {
    "code": 998,
    "eng": "Uzbekistan",
    "ru": "Узбекистан"
  },
  {
    "code": 678,
    "eng": "Vanuatu",
    "ru": "Вануату"
  },
  {
    "code": 39,
    "eng": "Vatican City State",
    "ru": "Ватикан"
  },
  {
    "code": 58,
    "eng": "Venezuela",
    "ru": "Венесуэла"
  },
  {
    "code": 84,
    "eng": "Vietnam",
    "ru": "Вьетнам"
  },
  {
    "code": 681,
    "eng": "Wallis and Futuna",
    "ru": ""
  },
  {
    "code": 21,
    "eng": "Western Sahara",
    "ru": "Западная Сахара"
  },
  {
    "code": 685,
    "eng": "Western Samoa",
    "ru": "Западное Самоа"
  },
  {
    "code": 967,
    "eng": "Yemen, North",
    "ru": "Северный Йемен"
  },
  {
    "code": 969,
    "eng": "Yemen, South",
    "ru": "Южный Йемен"
  },
  {
    "code": 381,
    "eng": "Yugoslavia",
    "ru": "Югославия"
  },
  {
    "code": 243,
    "eng": "Zaire",
    "ru": "Заир"
  },
  {
    "code": 260,
    "eng": "Zambia",
    "ru": "Замбия"
  },
  {
    "code": 259,
    "eng": "Zanzibar",
    "ru": "Занзибар"
  },
  {
    "code": 263,
    "eng": "Zimbabwe",
    "ru": "Зимбабве"
  }
]
